[
   "danger-prose",
   "danger-angular_commit_lint",
   "danger-android_lint",
   "danger-apkanalyzer",
   "danger-apkstats",
   "danger-android_permissions_checker",
   "danger-auto_label",
   "danger-brakeman_scanner",
   "danger-changelog",
   "danger-clubhouse",
   "danger-checkstyle_format",
   "danger-clorox",
   "danger-cobertura",
   "danger-code_coverage",
   "danger-commit_lint",
   "danger-conflict_checker",
   "danger-duplicate_localizable_strings",
   "danger-eslint",
   "danger-findbugs",
   "danger-flutter_lint",
   "danger-hlint",
   "danger-homete",
   "danger-jazzy",
   "danger-jenkins",
   "danger-ktlint",
   "danger-kotlin_detekt",
   "danger-jira",
   "danger-jira_sync",
   "danger-junit",
   "danger-lgtm",
   "danger-linear_history",
   "danger-localizationlinter",
   "danger-lock_dependency_versions",
   "danger-mention",
   "danger-missed_localizable_strings",
   "danger-pep8",
   "danger-pivotal_tracker",
   "danger-pmd",
   "danger-pronto",
   "danger-rails_best_practices",
   "danger-readme_docs",
   "danger-reek",
   "danger-resharper_inspectcode",
   "danger-rubocop",
   "danger-shiphawk-plugin",
   "danger-shellcheck",
   "danger-simplecov_json",
   "danger-slack",
   "danger-slather",
   "danger-slim_lint",
   "danger-spelling", 
   "danger-spotbugs",
   "danger-synx",
   "danger-suggester",
   "danger-swiftformat",
   "danger-swiftlint",
   "danger-tailor",
   "danger-textlint",
   "danger-the_coding_love",
   "danger-toc",
   "danger-todoist",
   "danger-transifex",
   "danger-podliblint",
   "danger-puppet_lint",
   "danger-package_json_lockdown",
   "danger-php_codesniffer",
   "danger-warnings_next_generation",
   "danger-welcome_message",
   "danger-xcode_summary",
   "danger-xcodebuild",
   "danger-xcov",
   "danger-undercover"
]
